%YAML 1.1
%TAG !u! tag:unity3d.com,2011:
--- !u!1045 &1
EditorBuildSettings:
  m_ObjectHideFlags: 0
  serializedVersion: 2
  m_Scenes:
  - enabled: 1
    path: Assets/Scenes/MainMenu.unity
    guid: 6ad0ceb93ebb8564f9a65ac208f139d8
  - enabled: 1
    path: Assets/Scenes/SpaceShooter.unity
    guid: cb6aa1bf59852d54bbb246e356410c43
  - enabled: 1
    path: Assets/Scenes/GameOver.unity
    guid: d8a496ca39436644c97a3f2b63b50dd1
  - enabled: 1
    path: Assets/Scenes/Finish.unity
    guid: e2db3c2cf46809344a413fb12f9a3b1d
  - enabled: 1
    path: Assets/Scenes/Credits.unity
    guid: 2d07ed2e302d90845ac41ebfd20d85c8
